RISC-V-Flavio/REGfile_and_ALU/waveform.vcd
$version Generated by VerilatedVcd $end
$date Sat Nov 16 08:44:45 2024 $end
$timescale 1ps $end

 $scope module TOP $end
  $var wire  5 M ALUctrl [4:0] $end
  $var wire  1 L ALUsrc $end
  $var wire 32 N ImmOp [31:0] $end
  $var wire  1 R RegWrite $end
  $var wire 32 S a0 [31:0] $end
  $var wire  1 K clk $end
  $var wire  5 Q rd [4:0] $end
  $var wire  5 O rs1 [4:0] $end
  $var wire  5 P rs2 [4:0] $end
  $scope module top $end
   $var wire  5 M ALUctrl [4:0] $end
   $var wire 32 $ ALUop1 [31:0] $end
   $var wire 32 E ALUop2 [31:0] $end
   $var wire 32 F ALUout [31:0] $end
   $var wire  1 L ALUsrc $end
   $var wire 32 T DATA_WIDTH [31:0] $end
   $var wire  5 M EQ [4:0] $end
   $var wire 32 N ImmOp [31:0] $end
   $var wire 32 U REG_DATA_WIDTH [31:0] $end
   $var wire  1 R RegWrite $end
   $var wire 32 S a0 [31:0] $end
   $var wire  1 K clk $end
   $var wire  5 Q rd [4:0] $end
   $var wire 32 # regOp2 [31:0] $end
   $var wire  5 O rs1 [4:0] $end
   $var wire  5 P rs2 [4:0] $end
   $scope module ALU $end
    $var wire  5 M ALUctrl [4:0] $end
    $var wire 32 $ ALUop1 [31:0] $end
    $var wire 32 E ALUop2 [31:0] $end
    $var wire 32 F ALUout [31:0] $end
    $var wire 32 T DATA_WIDTH [31:0] $end
    $var wire  5 M EQ [4:0] $end
    $var wire 32 G addi [31:0] $end
    $var wire 32 I andA [31:0] $end
    $var wire 32 J orA [31:0] $end
    $var wire 32 H sub [31:0] $end
   $upscope $end
   $scope module RegFile $end
    $var wire 32 $ ALUop1 [31:0] $end
    $var wire 32 F ALUout [31:0] $end
    $var wire 32 T DATA_WIDTH [31:0] $end
    $var wire 32 U REG_DATA_WIDTH [31:0] $end
    $var wire  1 R RegWrite $end
    $var wire 32 S a0 [31:0] $end
    $var wire  1 K clk $end
    $var wire  5 Q rd [4:0] $end
    $var wire 32 # regOp2 [31:0] $end
    $var wire 32 % rom_array[0] [31:0] $end
    $var wire 32 / rom_array[10] [31:0] $end
    $var wire 32 0 rom_array[11] [31:0] $end
    $var wire 32 1 rom_array[12] [31:0] $end
    $var wire 32 2 rom_array[13] [31:0] $end
    $var wire 32 3 rom_array[14] [31:0] $end
    $var wire 32 4 rom_array[15] [31:0] $end
    $var wire 32 5 rom_array[16] [31:0] $end
    $var wire 32 6 rom_array[17] [31:0] $end
    $var wire 32 7 rom_array[18] [31:0] $end
    $var wire 32 8 rom_array[19] [31:0] $end
    $var wire 32 & rom_array[1] [31:0] $end
    $var wire 32 9 rom_array[20] [31:0] $end
    $var wire 32 : rom_array[21] [31:0] $end
    $var wire 32 ; rom_array[22] [31:0] $end
    $var wire 32 < rom_array[23] [31:0] $end
    $var wire 32 = rom_array[24] [31:0] $end
    $var wire 32 > rom_array[25] [31:0] $end
    $var wire 32 ? rom_array[26] [31:0] $end
    $var wire 32 @ rom_array[27] [31:0] $end
    $var wire 32 A rom_array[28] [31:0] $end
    $var wire 32 B rom_array[29] [31:0] $end
    $var wire 32 ' rom_array[2] [31:0] $end
    $var wire 32 C rom_array[30] [31:0] $end
    $var wire 32 D rom_array[31] [31:0] $end
    $var wire 32 ( rom_array[3] [31:0] $end
    $var wire 32 ) rom_array[4] [31:0] $end
    $var wire 32 * rom_array[5] [31:0] $end
    $var wire 32 + rom_array[6] [31:0] $end
    $var wire 32 , rom_array[7] [31:0] $end
    $var wire 32 - rom_array[8] [31:0] $end
    $var wire 32 . rom_array[9] [31:0] $end
    $var wire  5 O rs1 [4:0] $end
    $var wire  5 P rs2 [4:0] $end
   $upscope $end
   $scope module mux $end
    $var wire 32 E ALUop2 [31:0] $end
    $var wire  1 L ALUsrc $end
    $var wire 32 T DATA_WIDTH [31:0] $end
    $var wire 32 N ImmOp [31:0] $end
    $var wire 32 # regOp2 [31:0] $end
   $upscope $end
  $upscope $end
 $upscope $end
$enddefinitions $end


#0
b00000000000000000000000000000000 #
b00000000000000000000000000000000 $
b00000000000000000000000000000000 %
b00000000000000000000000000000000 &
b00000000000000000000000000000000 '
b00000000000000000000000000000000 (
b00000000000000000000000000000000 )
b00000000000000000000000000000000 *
b00000000000000000000000000000000 +
b00000000000000000000000000000000 ,
b00000000000000000000000000000000 -
b00000000000000000000000000000000 .
b00000000000000000000000000000000 /
b00000000000000000000000000000000 0
b00000000000000000000000000000000 1
b00000000000000000000000000000000 2
b00000000000000000000000000000000 3
b00000000000000000000000000000000 4
b00000000000000000000000000000000 5
b00000000000000000000000000000000 6
b00000000000000000000000000000000 7
b00000000000000000000000000000000 8
b00000000000000000000000000000000 9
b00000000000000000000000000000000 :
b00000000000000000000000000000000 ;
b00000000000000000000000000000000 <
b00000000000000000000000000000000 =
b00000000000000000000000000000000 >
b00000000000000000000000000000000 ?
b00000000000000000000000000000000 @
b00000000000000000000000000000000 A
b00000000000000000000000000000000 B
b00000000000000000000000000000000 C
b00000000000000000000000000000000 D
b00000000000000000000000000000000 E
b00000000000000000000000000000000 F
b00000000000000000000000000000000 G
b00000000000000000000000000000000 H
b00000000000000000000000000000000 I
b00000000000000000000000000000000 J
0K
0L
b00000 M
b00000000000000000000000000001010 N
b00000 O
b00010 P
b00000 Q
0R
b00000000000000000000000000000000 S
b00000000000000000000000000100000 T
b00000000000000000000000000000101 U
#1
b00000000000000000000000000000001 &
b00000000000000000000000000000010 '
b00000000000000000000000000000011 (
b00000000000000000000000000000100 )
b00000000000000000000000000000101 *
b00000000000000000000000000000110 +
b00000000000000000000000000000111 ,
b00000000000000000000000000001000 -
b00000000000000000000000000001001 .
b00000000000000000000000000010000 /
b00000000000000000000000000010001 0
b00000000000000000000000000010010 1
b00000000000000000000000000010011 2
b00000000000000000000000000010100 3
b00000000000000000000000000010101 4
b00000000000000000000000000010110 5
b00000000000000000000000000010111 6
b00000000000000000000000000011000 7
b00000000000000000000000000011001 8
b00000000000000000000000000100000 9
b00000000000000000000000000100001 :
b00000000000000000000000000100010 ;
b00000000000000000000000000100011 <
b00000000000000000000000000100100 =
b00000000000000000000000000100101 >
b00000000000000000000000000100110 ?
b00000000000000000000000000100111 @
b00000000000000000000000000101000 A
b00000000000000000000000000101001 B
b00000000000000000000000000110000 C
b00000000000000000000000000110001 D
1K
#2
0K
1R
#3
1K
#4
0K
0R
#5
b00000000000000000000000000000010 #
b00000000000000000000000000000010 E
b00000000000000000000000000000010 F
b00000000000000000000000000000010 G
b11111111111111111111111111111110 H
b00000000000000000000000000000010 J
1K
#6
0K
1R
#7
b00000000000000000000000000000010 %
1K
b00000000000000000000000000000010 S
#8
0K
0R
#9
b00000000000000000000000000000010 $
b00000000000000000000000000000100 F
b00000000000000000000000000000100 G
b00000000000000000000000000000000 H
b00000000000000000000000000000010 I
1K
#10
0K
1R
#11
b00000000000000000000000000000100 %
1K
b00000000000000000000000000000100 S
#12
0K
0R
#13
b00000000000000000000000000000100 $
b00000000000000000000000000000110 F
b00000000000000000000000000000110 G
b00000000000000000000000000000010 H
b00000000000000000000000000000000 I
b00000000000000000000000000000110 J
1K
#14
0K
1R
#15
b00000000000000000000000000000110 %
1K
b00000000000000000000000000000110 S
#16
0K
0R
#17
b00000000000000000000000000000110 $
b00000000000000000000000000001000 F
b00000000000000000000000000001000 G
b00000000000000000000000000000100 H
b00000000000000000000000000000010 I
1K
#18
0K
1R
#19
b00000000000000000000000000001000 %
1K
b00000000000000000000000000001000 S
#20
0K
0R
#21
b00000000000000000000000000001000 $
b00000000000000000000000000001010 F
b00000000000000000000000000001010 G
b00000000000000000000000000000110 H
b00000000000000000000000000000000 I
b00000000000000000000000000001010 J
1K
#22
0K
b00001 M
1R
#23
b00000000000000000000000000001010 %
b00000000000000000000000000000110 F
1K
b00000000000000000000000000001010 S
#24
0K
0R
#25
b00000000000000000000000000001010 $
b00000000000000000000000000001000 F
b00000000000000000000000000001100 G
b00000000000000000000000000001000 H
b00000000000000000000000000000010 I
1K
#26
0K
1R
#27
b00000000000000000000000000001000 %
1K
b00000000000000000000000000001000 S
#28
0K
0R
#29
b00000000000000000000000000001000 $
b00000000000000000000000000000110 F
b00000000000000000000000000001010 G
b00000000000000000000000000000110 H
b00000000000000000000000000000000 I
1K
#30
0K
1R
#31
b00000000000000000000000000000110 %
1K
b00000000000000000000000000000110 S
#32
0K
0R
#33
b00000000000000000000000000000110 $
b00000000000000000000000000000100 F
b00000000000000000000000000001000 G
b00000000000000000000000000000100 H
b00000000000000000000000000000010 I
b00000000000000000000000000000110 J
1K
#34
0K
1R
#35
b00000000000000000000000000000100 %
1K
b00000000000000000000000000000100 S
#36
0K
0R
#37
b00000000000000000000000000000100 $
b00000000000000000000000000000010 F
b00000000000000000000000000000110 G
b00000000000000000000000000000010 H
b00000000000000000000000000000000 I
1K
#38
0K
1R
#39
b00000000000000000000000000000010 %
1K
b00000000000000000000000000000010 S
